decoder3x8/wave.vcd
$date
  Wed Feb 04 22:06:29 2026
$end
$version
  GHDL v0
$end
$timescale
  1 fs
$end
$var reg 3 ! i[2:0] $end
$var reg 8 " y[7:0] $end
$scope module uut $end
$var reg 3 # i[2:0] $end
$var reg 8 $ y[7:0] $end
$upscope $end
$enddefinitions $end
#0
b000 !
b00000001 "
b000 #
b00000001 $
#10000000
b001 !
b00000010 "
b001 #
b00000010 $
#20000000
b010 !
b00000100 "
b010 #
b00000100 $
#30000000
b011 !
b00001000 "
b011 #
b00001000 $
#40000000
b100 !
b00010000 "
b100 #
b00010000 $
#50000000
b101 !
b00100000 "
b101 #
b00100000 $
#60000000
b110 !
b01000000 "
b110 #
b01000000 $
#70000000
b111 !
b10000000 "
b111 #
b10000000 $
